Examining NAs
…
## The following objects are masked from 'package:stats':
## 
##     filter, lag

## The following objects are masked from 'package:base':
## 
##     intersect, setdiff, setequal, union

## here() starts at /sfs/qumulo/qhome/eg5se/git/dspg20CharlottesvilleEMSEquity

NA Counts

miss_var_summary(ems_full)

## # A tibble: 84 x 3
##    variable                                             n_miss pct_miss
##    <chr>                                                 <int>    <dbl>
##  1 cardiac_arrest_rosc_date_time                        109743     99.0
##  2 cardiac_arrest_who_initiated_cpr_with_code           109743     99.0
##  3 cardiac_arrest_initial_cpr_date_time                 109742     99.0
##  4 patient_head_assessment_exam_details                 109534     98.8
##  5 destination_cardiac_arrest_team_activation_date_time 109325     98.6
##  6 patient_respiratory_effort_list                      109227     98.6
##  7 patient_skin_assessment_exam_details                 108807     98.2
##  8 patient_neurological_assessment_exam_details         108559     98.0
##  9 patient_weight_actual_or_estimate_pounds             108506     97.9
## 10 patient_mental_status_assessment_exam_details        108435     97.8
## #  with 74 more rows
…
